// Jest Snapshot v1, https://goo.gl/fbAQLP

exports[`docs/rules/wcag/h71.md inline validation: correct 1`] = `Array []`;

exports[`docs/rules/wcag/h71.md inline validation: incorrect 1`] = `
Array [
  Object {
    "errorCount": 1,
    "filePath": "inline",
    "messages": Array [
      Object {
        "column": 2,
        "context": undefined,
        "line": 1,
        "message": "<fieldset> must have a <legend> as the first child",
        "offset": 1,
        "ruleId": "wcag/h71",
        "selector": "fieldset",
        "severity": 2,
        "size": 8,
      },
    ],
    "source": "<fieldset>
	...
</fieldset>",
    "warningCount": 0,
  },
]
`;
